…
The function initially sets up to have members nested within families,
but we drop to just 1 member/family before simulating data.

``` r
# look at the data
  df
```

    ## # A tibble: 160 × 7
    ##    treatment member family group facilitator y_pre y_post
    ##        <dbl>  <dbl>  <dbl> <dbl>       <dbl> <dbl>  <dbl>
    ##  1         1      1      1     1           1  1.21   3.25
    ##  2         1      6      2     1           1  2.83   3.54
    ##  3         1     10      3     1           1  1.65   1.52
    ##  4         1     13      4     1           1  2.76   2.60
    ##  5         1     30      9     3           1  1.90   1.34
    ##  6         1     33     10     3           1  2.43   3.00
    ##  7         1     37     11     3           1  1.67   2.22
    ##  8         1     41     12     3           1  1.90   2.67
    ##  9         1     56     17     5           2  2.21   3.72
    ## 10         1     61     18     5           2  1.07   2.08
    ## # … with 150 more rows
…
